etapa3/circuitos_digitais/simulation/qsim/digital_circuits_final_work.msim.vcd
$comment
	File created using the following command:
		vcd file digital_circuits_final_work.msim.vcd -direction
$end
$date
	Tue Jun 28 21:50:41 2022
$end
$version
	ModelSim Version 10.1d
$end
$timescale
	1ps
$end
$scope module digital_circuits_final_work_vlg_vec_tst $end
$var reg 8 ! a [7:0] $end
$var reg 1 " add_sub $end
$var reg 8 # b [7:0] $end
$var wire 1 $ c_out $end
$var wire 1 % s [7] $end
$var wire 1 & s [6] $end
$var wire 1 ' s [5] $end
$var wire 1 ( s [4] $end
$var wire 1 ) s [3] $end
$var wire 1 * s [2] $end
$var wire 1 + s [1] $end
$var wire 1 , s [0] $end
$var wire 1 - sampler $end
$scope module i1 $end
$var wire 1 . gnd $end
$var wire 1 / vcc $end
$var wire 1 0 unknown $end
$var tri1 1 1 devclrn $end
$var tri1 1 2 devpor $end
$var tri1 1 3 devoe $end
$var wire 1 4 c_out~output_o $end
$var wire 1 5 s[7]~output_o $end
$var wire 1 6 s[6]~output_o $end
$var wire 1 7 s[5]~output_o $end
$var wire 1 8 s[4]~output_o $end
$var wire 1 9 s[3]~output_o $end
$var wire 1 : s[2]~output_o $end
$var wire 1 ; s[1]~output_o $end
$var wire 1 < s[0]~output_o $end
$var wire 1 = b[7]~input_o $end
$var wire 1 > add_sub~input_o $end
$var wire 1 ? a[7]~input_o $end
$var wire 1 @ b[6]~input_o $end
$var wire 1 A a[6]~input_o $end
$var wire 1 B b[5]~input_o $end
$var wire 1 C a[5]~input_o $end
$var wire 1 D b[4]~input_o $end
$var wire 1 E a[4]~input_o $end
$var wire 1 F b[3]~input_o $end
$var wire 1 G a[3]~input_o $end
$var wire 1 H b[2]~input_o $end
$var wire 1 I a[2]~input_o $end
$var wire 1 J b[1]~input_o $end
$var wire 1 K a[1]~input_o $end
$var wire 1 L a[0]~input_o $end
$var wire 1 M b[0]~input_o $end
$var wire 1 N inst|inst|inst1|inst~0_combout $end
$var wire 1 O inst|inst1|inst1|inst~0_combout $end
$var wire 1 P inst|inst2|inst1|inst~0_combout $end
$var wire 1 Q inst|inst3|inst1|inst~0_combout $end
$var wire 1 R inst|inst4|inst1|inst~0_combout $end
$var wire 1 S inst|inst5|inst1|inst~0_combout $end
$var wire 1 T inst|inst6|inst1|inst~0_combout $end
$var wire 1 U inst|inst7|inst1|inst~0_combout $end
$var wire 1 V inst|inst7|inst|1~0_combout $end
$var wire 1 W inst|inst6|inst|1~0_combout $end
$var wire 1 X inst|inst5|inst|1~0_combout $end
$var wire 1 Y inst|inst4|inst|1~0_combout $end
$var wire 1 Z inst|inst3|inst|1~0_combout $end
$var wire 1 [ inst|inst2|inst|1~0_combout $end
$var wire 1 \ inst|inst1|inst|1~combout $end
$var wire 1 ] inst|inst|inst|1~0_combout $end
$upscope $end
$upscope $end
$enddefinitions $end
#0
$dumpvars
b0 !
0"
b0 #
0$
0,
0+
0*
0)
0(
0'
0&
0%
x-
0.
1/
x0
11
12
13
04
05
06
07
08
09
0:
0;
0<
0=
0>
0?
0@
0A
0B
0C
0D
0E
0F
0G
0H
0I
0J
0K
0L
0M
0N
0O
0P
0Q
0R
0S
0T
0U
0V
0W
0X
0Y
0Z
0[
0\
0]
$end
#50000
b10 !
b11 !
b1 #
1M
1L
1K
0-
1N
1\
1O
1;
1+
0\
0;
0+
1[
1:
1*
#100000
b111 !
b11 #
b110 !
b10 #
0M
1J
0L
1I
1-
0N
1P
1\
0[
1;
0:
1+
0*
0\
1Z
0;
19
0+
1)
#150000
b1110 !
b1100 !
b1000 !
b1001 !
b11 #
1M
1L
0K
0I
1G
0-
1N
0O
0P
1Q
1\
1[
0Z
1O
0Q
1;
1:
09
1+
1*
0)
0\
0[
1Z
1Y
0;
0:
19
18
0+
0*
1)
1(
1[
0Y
1:
08
1*
0(
#200000
b111 #
b101 #
b1101 !
b1100 !
b100 #
0L
1I
0M
0J
1H
1-
0N
1P
0O
1\
1Q
1;
1+
0\
0Z
0[
0;
09
0:
0+
0)
0*
1Y
18
1(
#250000
b1110 !
b1111 !
b101 #
1M
1L
1K
0-
1N
1\
1O
1;
1+
0\
0;
0+
1[
1:
1*
#300000
b11111 !
b10111 !
b111 #
b10011 !
b10010 !
b110 #
0M
1J
0L
0I
0G
1E
1-
0N
0Q
1R
1\
0[
1Z
0Y
0R
1;
0:
19
08
1+
0*
1)
0(
0\
1Y
1X
0;
18
17
0+
1(
1'
0X
07
0'
#350000
b10000 !
b10100 !
b10101 !
b111 #
1M
1L
0K
1I
0-
1N
0O
1\
1[
1O
1;
1:
1+
1*
0\
0[
0;
0:
0+
0*
1[
1:
1*
#400000
b1111 #
b1011 #
b11101 !
b1001 #
b11001 !
b11000 !
b1000 #
0L
0I
1G
0M
0J
0H
1F
1-
0N
0P
1Q
0O
1\
1R
1;
1+
0\
0Z
0Y
0[
0;
09
08
0:
0+
0)
0(
0*
1X
17
1'
#450000
b11010 !
b11011 !
b1001 #
1M
1L
1K
0-
1N
1\
1O
1;
1+
0\
0;
0+
1[
1:
1*
#500000
1"
b1011 #
b11111 !
b11110 !
b1010 #
1>
0L
1I
0M
1J
1-
1S
0Q
1P
1Z
1Y
0X
1W
1V
1T
1Q
19
18
07
16
15
1)
1(
0'
1&
1%
0W
0Y
0Z
06
08
09
0&
0(
0)
0V
1U
1Y
05
14
18
0%
1$
1(
#550000
b111110 !
b101110 !
b100110 !
b100100 !
b100000 !
b100001 !
b1011 #
1M
1L
0K
0I
0G
0E
1C
0-
0O
0Q
1\
0[
1Z
0Y
1X
0P
0R
1;
0:
19
08
17
1+
0*
1)
0(
1'
1[
1Y
1:
18
1*
1(
0Z
0X
09
07
0)
0'
#600000
b1111 #
b1101 #
b100101 !
b100100 !
b1100 #
0L
1I
0M
0J
1H
1-
1O
0\
1P
0;
0+
0[
0:
0*
1Z
19
1)
#650000
b100110 !
b100111 !
b1101 #
1M
1L
1K
0-
1\
1;
1+
#700000
b101111 !
b1111 #
b101011 !
b101010 !
b1110 #
0M
1J
0L
0I
1G
1-
0P
1Q
0\
1[
0Z
0Q
1R
0;
1:
09
0+
1*
0)
1Z
0Y
0R
19
08
1)
0(
1Y
1X
18
17
1(
1'
0X
07
0'
#750000
b101000 !
b101100 !
b101101 !
b1111 #
1M
1L
0K
1I
0-
0O
1P
1\
0[
0P
1Q
1;
0:
1+
0*
1[
0Z
0Q
1R
1:
09
1*
0)
1Z
0Y
0R
19
08
1)
0(
1Y
1X
18
17
1(
1'
0X
07
0'
#800000
b11111 #
b10111 #
b111101 !
b10011 #
b110101 !
b10001 #
b110001 !
b110000 !
b10000 #
0L
0I
0G
1E
0M
0J
0H
0F
1D
1-
1O
0\
1P
0;
0+
0[
1Q
0:
0*
0Z
1R
09
0)
0Y
08
0(
1X
17
1'
#850000
b110010 !
b110011 !
b10001 #
1M
1L
1K
0-
1\
1;
1+
#900000
b10011 #
b110111 !
b110110 !
b10010 #
0L
1I
0M
1J
1-
1[
0\
1:
0;
1*
0+
#950000
b111110 !
b111100 !
b111000 !
b111001 !
b10011 #
1M
1L
0K
0I
1G
0-
0O
1\
0[
1Z
0P
1;
0:
19
1+
0*
1)
1[
1:
1*
0Z
09
0)
